\relax 
\@writefile{toc}{\contentsline {section}{\numberline {1}Minimum spanning tree}{1}}
\@writefile{toc}{\contentsline {section}{\numberline {2}The shortest path algorithms}{1}}
\@writefile{toc}{\contentsline {subsection}{\numberline {2.1}}{1}}
\@writefile{toc}{\contentsline {subsection}{\numberline {2.2}}{1}}
\@writefile{toc}{\contentsline {section}{\numberline {3}The shortest path problem}{1}}
\@writefile{toc}{\contentsline {section}{\numberline {4}Balls and Bins}{1}}
\@writefile{toc}{\contentsline {subsection}{\numberline {4.1}}{1}}
\@writefile{toc}{\contentsline {subsection}{\numberline {4.2}}{1}}
\@writefile{toc}{\contentsline {section}{\numberline {5}A Variation of the hiring problem}{1}}
